<?xml version="1.0" encoding="utf-8"?>
<!-- Generator: Adobe Illustrator 18.1.1, SVG Export Plug-In . SVG Version: 6.00 Build 0)  -->
<svg version="1.1" id="Layer_1" xmlns="http://www.w3.org/2000/svg" xmlns:xlink="http://www.w3.org/1999/xlink" x="0px" y="0px"
	 viewBox="-251.062 355.345 39.994 25.468" enable-background="new -251.062 355.345 39.994 25.468" xml:space="preserve">
<path stroke="#000000" stroke-miterlimit="10" d="M-214.483,373.946c-3.2-1-4.28-2.32-4.52-3.16c1.04-0.08,2.92-0.36,4.04-1.52
	c0.2-0.2,0.28-0.48,0.2-0.72c-0.08-0.24-0.28-0.44-0.52-0.52c-0.12-0.04-1.36-0.6-1.08-3.4c0.2-2.08,0.12-4.88-1.36-6.4
	c-0.64-0.64-1.48-0.96-2.44-0.96c-0.6-0.48-2.04-1.36-4.32-0.48h-0.04c-1.56,0.6-3.64,1.96-3.52,6.88c0.08,3.2-0.72,4.16-1.08,4.28
	c-0.28-0.04-0.52,0.12-0.64,0.36c-0.16,0.24-0.08,0.56,0.08,0.84c0.12,0.16,1.16,1.56,4.28,1.72c-0.16,0.6-0.76,1.56-2.76,2.48
	c-0.36,0.16-0.76,0.32-1.16,0.48c-0.04,0.04-0.12,0.04-0.16,0.08c-4.08-1.16-5.12-2.52-5.36-3.08c3.24-2.24,2.8-7.6,2.76-8.04
	c-0.24-4.92-3.84-6.12-6-6.08c-2.12-0.08-5.76,1.12-6,6.08c-0.04,0.48-0.52,6,2.92,8.16c-0.36,0.64-1.6,2.04-6.12,3.2
	c-1.88,0.48-2.84,2.28-2.68,4.92c0.04,0.4,0.36,0.68,0.76,0.68h22.44c0.04,0,0.04,0,0.08,0c0.04,0,0.04,0,0.08,0h13.68
	c0.4,0,0.72-0.32,0.76-0.72C-212.043,376.266-212.843,374.466-214.483,373.946z M-248.483,378.226c0.04-1.04,0.32-2.36,1.56-2.68
	c7.32-1.84,7.4-4.72,7.4-5.04c0-0.16-0.08-0.32-0.2-0.44c0,0,0-0.04-0.04-0.04c-0.04-0.04-0.04-0.04-0.08-0.04
	c0,0-0.04-0.04-0.08-0.04l-0.04-0.04l-0.04-0.04c-3.16-1.48-2.6-6.92-2.6-6.96v-0.04c0.2-4.6,3.76-4.68,4.48-4.64h0.04
	c0.72-0.04,4.24,0.08,4.48,4.64v0.04c0,0.04,0.56,5.32-2.48,6.92c-0.32,0.16-0.48,0.52-0.36,0.88c0.08,0.72,0.76,3.24,7.4,4.88
	c1.24,0.32,1.483,1.525,1.523,2.605L-248.483,378.226z M-226.003,378.226c-0.04-1.6-0.56-2.84-1.48-3.56c4.28-2,3.6-4.64,3.6-4.76
	l-0.12,0.04c-0.08-0.32-0.36-0.6-0.72-0.6c-0.04,0-0.08,0-0.08,0c-1.44,0-2.32-0.28-2.88-0.56c0.88-0.92,1.28-2.64,1.2-5.12
	c-0.12-4.44,1.76-5.12,2.56-5.44h0.04c1.96-0.72,2.88,0.32,2.92,0.36c0.16,0.2,0.4,0.28,0.64,0.28c0.68-0.08,1.2,0.12,1.6,0.52
	c0.84,0.84,1.2,2.72,0.96,5.2c-0.24,2.32,0.44,3.56,1.08,4.24c-1,0.48-2.36,0.56-2.92,0.56c-0.36,0-0.64,0.24-0.72,0.56
	c0,0,0,0,0,0.04c-0.12,0.44-0.6,3.6,5.52,5.48c1.04,0.32,1.263,1.687,1.303,2.767L-226.003,378.226z"/>
</svg>
