<?xml version="1.0" encoding="utf-8"?>
<!-- Generator: Adobe Illustrator 18.1.1, SVG Export Plug-In . SVG Version: 6.00 Build 0)  -->
<svg version="1.1" id="Layer_1" xmlns="http://www.w3.org/2000/svg" xmlns:xlink="http://www.w3.org/1999/xlink" x="0px" y="0px"
	 viewBox="0 0 50 53.8" enable-background="new 0 0 50 53.8" xml:space="preserve">
<g>
	<g>
		<g>
			<g>
				<path fill="#666666" d="M21.5,23.6c-2.4-2.2-4.2-6.4-4.2-9.8c0-4.8,4-8,7.7-8c3.7,0,7.5,3.4,7.5,8.3c0,3.4-2,7.5-4.5,9.6
					c0.5,2,3.3,2.6,9.2,4.2c6.5,1.8,5.4,6.2,5.4,9.1l0.4,16.9H7.2L7.4,37c0-3-1.6-7.4,4.9-9.1c5.7-1.6,8.5-2.2,9.1-4.1"/>
			</g>
		</g>
	</g>
</g>
</svg>
